…
``` r
 prob_all$labels_ba <- ifelse(prob_all$final_ba >= cutoff, "bad","good") 
 print(prob_all) 
```

    ## # A tibble: 200 x 5
    ##      nnet    svm    sda final_ba labels_ba
    ##     <dbl>  <dbl>  <dbl>    <dbl> <chr>    
    ##  1 0.0727 0.0669 0.0489   0.0628 good     
    ##  2 0.609  0.289  0.409    0.436  bad      
    ##  3 0.306  0.387  0.428    0.374  bad      
    ##  4 0.350  0.362  0.372    0.361  bad      
    ##  5 0.170  0.146  0.137    0.151  good     
    ##  6 0.239  0.194  0.208    0.214  good     
    ##  7 0.216  0.201  0.177    0.198  good     
    ##  8 0.566  0.446  0.512    0.508  bad      
    ##  9 0.0489 0.157  0.0333   0.0798 good     
    ## 10 0.209  0.305  0.244    0.253  good     
    ## # … with 190 more rows
…
